Primary energy sources • IDEEA.dev
…
Government of India is determined to promote usage of natural gas, as
a fuel and feedstock across the country, and to increase its share in
primary energy mix from around 6.7% to 15% by 2030 [1]. The estimated
CBM resources are of the order of 2600 BCM or 91 Trillion TCF spread
over 11 states of the country. Natural Gas Production during 2020-21
stood at 28.67 BCM. Currently, 2575 sq. kms of CBM resources are
available in India. Out of 280.357 BCM of CBM, 112.63 BCM of CBM are
recoverable reserves [2].

code

# loading and processing oil data
get_ideea_data(name = "gas", raw = T) # check raw data
#> # A tibble: 45 × 9
#>    reg36 reg36_off reg1  offshore name36            name1 gas_reserve_Bcm_2021
#>    <chr> <chr>     <chr> <lgl>    <chr>             <chr>                <dbl>
#>  1 AP    AP        IND   FALSE    Andhra Pradesh    India                65.5 
#>  2 AP    AP_off    IND   TRUE     Andhra Pradesh    India                NA   
#>  3 AR    AR        IND   FALSE    Arunachal Pradesh India                 3.14
#>  4 AS    AS        IND   FALSE    Assam             India               167.  
#>  5 BR    BR        IND   FALSE    Bihar             India                NA   
#>  6 CH    CH        IND   FALSE    Chandigarh        India                NA   
#>  7 CT    CT        IND   FALSE    Chhattisgarh      India                NA   
#>  8 DD    DD        IND   FALSE    Daman and Diu     India                NA   
#>  9 DD    DD_off    IND   TRUE     Daman and Diu     India                NA   
#> 10 DL    DL        IND   FALSE    Delhi             India                NA   
#> # ℹ 35 more rows
#> # ℹ 2 more variables: gas_reserve_GWh_2021 <dbl>, gas_cost_USD_kWh <dbl>
…
