Get data from IDEEA database — get_ideea_data • IDEEA.dev
…
raw
logical, should the raw table be returned, FALSE by default

offshore
logical, should the data for offshore areas be returned, FALSE by default

islands
logical, should the data for remote islands be returned, FALSE by default

    Examples

  get_ideea_data("coal", raw = T)
#> # A tibble: 34 × 13
#>    reg36 name36   mainland offshore reg1  name1 total_reserve_Mt production_2021
#>  * <chr> <chr>    <lgl>    <lgl>    <chr> <chr>            <dbl>           <dbl>
#>  1 AP    Andhra … TRUE     FALSE    IND   India           4142.           NA    
#>  2 AR    Arunach… TRUE     FALSE    IND   India             90.2          NA    
#>  3 AS    Assam    TRUE     FALSE    IND   India            525.            0.036
#>  4 BR    Bihar    TRUE     FALSE    IND   India           4437.           NA    
#>  5 CH    Chandig… TRUE     FALSE    IND   India             NA            NA    
#>  6 CT    Chhatti… TRUE     FALSE    IND   India          74192.          158.   
#>  7 DD    Daman a… TRUE     FALSE    IND   India             NA            NA    
#>  8 DL    Delhi    TRUE     FALSE    IND   India             NA            NA    
#>  9 DN    Dadra a… TRUE     FALSE    IND   India             NA            NA    
#> 10 GA    Goa      TRUE     FALSE    IND   India             NA            NA    
#> # ℹ 24 more rows
#> # ℹ 5 more variables: production_up_2030 <lgl>, production_up_2050 <lgl>,
#> #   cost_USD_t_2020 <dbl>, cost_USD_t_2030 <lgl>, cost_USD_t_2050 <lgl>
  get_ideea_data("coal", nreg = 7, "reserve")
#> # A tibble: 5 × 2
#>   reg7      total_reserve_Mt
#>   <chr>                <dbl>
#> 1 EAST               213174.
#> 2 NORTH                1062.
#> 3 NORTHEAST            1670.
#> 4 SOUTH               27176.
#> 5 WEST               118329.
  get_ideea_data("oil", nreg = 34, "reserve", islands = T)
#> # A tibble: 34 × 4
#>    reg34 mainland oil_reserve_Mt_2021 oil_reserve_GWh_2021
#>    <chr> <lgl>                  <dbl>                <dbl>
#>  1 AN    FALSE                   0                      0 
#>  2 APY   TRUE                    7.33               85248.
#>  3 AR    TRUE                    3.64               42333.
#>  4 AS    TRUE                  153.               1779972.
#>  5 BR    TRUE                    0                      0 
#>  6 CH    TRUE                    0                      0 
#>  7 CT    TRUE                    0                      0 
#>  8 DL    TRUE                    0                      0 
#>  9 DN    TRUE                    0                      0 
#> 10 GA    TRUE                    0                      0 
#> # ℹ 24 more rows
…
